1 10 20
100 200 125
999999 999999 259
1 999999 525
201 210 89
900 1000 174
1000 901 174
2769 9075 262
7680 2643 262
1270 211 182
972 6955 262
512 9309 262
6473 4441 262
4802 7857 262
6561 4938 262
6168 9917 262
3413 5804 238
1427 8763 262
5799 1415 238
1080 1003 169
1913 4786 238
905 4425 238
1749 274 182
9830 735 262
3828 7892 262
8281 6917 257
3704 560 217
6153 4055 236
3120 2461 217
6845 8214 257
8545 7661 252
3492 7354 262
1018 2245 183
7128 1531 262
7834 4404 262
2542 473 209
1702 6859 262
2226 1330 183
9088 790 262
1 1 1
5 1 8
1 2 2
10 10 7
6 7 17
600 1 144
2 125 119
400 500 142
78 164 122
57 646 144
406 281 144
64 339 144
653 56 145
769 864 153
303 252 123
556 551 137
778 660 171
764 629 171
984 550 179
725 671 171
305 514 144
44 686 145
353 25 144
732 321 171
677 569 145
229 673 145
67 442 144
734 348 171
207 431 144
236 444 144
423 718 171
257 907 179
160 966 179
776 347 171
668 436 145
318 718 171
842 494 171
944 716 179
732 888 179
2 115 119
974 709 179
631 936 179
473 71 144
35 50 110
399 403 121
389 64 144
140 7 122
5819 9280 262
9061 9693 260
5413 3355 238
5150 9146 262
7317 7788 239
3281 8444 262
7195 7718 239
3592 7766 262
4953 785 238
6090 2643 238
7259 7387 195
9710 1177 262
2487 5455 238
8966 9120 185
7897 2550 262
2896 7511 262
5977 9613 262
4429 8766 262
3265 3180 168
2009 9765 262
2809 381 209
268 6966 262
202 2426 183